{
    "KPackageStructure": "Plasma/Applet",
    "KPlugin": {
        "Authors": [
            {
                "Email": "mart@kde.org",
                "Name": "Marco Martin",
                "Name[ar]": "ماركو مارتن",
                "Name[ast]": "Marco Martin",
                "Name[az]": "Marco Martin",
                "Name[be]": "Marco Martin",
                "Name[bg]": "Marco Martin",
                "Name[ca@valencia]": "Marco Martin",
                "Name[ca]": "Marco Martin",
                "Name[cs]": "Marco Martin",
                "Name[de]": "Marco Martin",
                "Name[en_GB]": "Marco Martin",
                "Name[eo]": "Marco Martin",
                "Name[es]": "Marco Martin",
                "Name[eu]": "Marco Martin",
                "Name[fi]": "Marco Martin",
                "Name[fr]": "Marco Martin",
                "Name[gl]": "Marco Martin",
                "Name[ia]": "Marco Martin",
                "Name[id]": "Marco Martin",
                "Name[it]": "Marco Martin",
                "Name[ka]": "Marco Martin",
                "Name[ko]": "Marco Martin",
                "Name[nl]": "Marco Martin",
                "Name[nn]": "Marco Martin",
                "Name[pl]": "Marco Martin",
                "Name[pt]": "Marco Martin",
                "Name[pt_BR]": "Marco Martin",
                "Name[ru]": "Marco Martin",
                "Name[sk]": "Marco Martin",
                "Name[sl]": "Marco Martin",
                "Name[sv]": "Marco Martin",
                "Name[ta]": "மார்க்கோ மார்ட்டின்",
                "Name[tr]": "Marco Martin",
                "Name[uk]": "Marco Martin",
                "Name[vi]": "Marco Martin",
                "Name[x-test]": "xxMarco Martinxx",
                "Name[zh_CN]": "Marco Martin"
            }
        ],
        "Category": "",
        "Description": "Example applet with config",
        "Description[bg]": "Примерна приставка с конфигурация",
        "Description[ca@valencia]": "Miniaplicació d'exemple amb configuració",
        "Description[ca]": "Miniaplicació d'exemple amb configuració",
        "Description[eo]": "Ekzempla apleto kun agordo",
        "Description[es]": "Miniaplicación de ejemplo con configuración",
        "Description[eu]": "Aplikaziotxo baten adibidea konfigurazioarekin",
        "Description[fr]": "Un exemple d'applet avec une configuration",
        "Description[gl]": "Trebello de exemplo con configuración.",
        "Description[ia]": "Applet de exemplo con configuration",
        "Description[it]": "Applet di esempio con configurazione",
        "Description[ka]": "სამაგალითო აპლეტი კონფიგურაციით",
        "Description[ko]": "설정 가능한 예제 애플릿",
        "Description[nl]": "Voorbeeld applet met configuratie",
        "Description[pt_BR]": "Exemplo de applet com configuração",
        "Description[sl]": "Primer apleta",
        "Description[tr]": "Yapılandırmalı örnek uygulamacık",
        "Description[uk]": "Приклад аплету із налаштуваннями",
        "Description[x-test]": "xxExample applet with configxx",
        "Description[zh_CN]": "带有配置的示例小程序",
        "Id": "org.kde.example.configuration",
        "License": "GPLv2+",
        "Name": "Configuration test",
        "Name[az]": "Tənzimləmə testi",
        "Name[be]": "Тэставанне канфігурацыі",
        "Name[bg]": "Тест на настройките",
        "Name[ca@valencia]": "Prova de configuració",
        "Name[ca]": "Prova de configuració",
        "Name[cs]": "Test nastavení",
        "Name[en_GB]": "Configuration test",
        "Name[eo]": "Testo de agordo",
        "Name[es]": "Prueba de configuración",
        "Name[eu]": "Konfigurazio-proba",
        "Name[fi]": "Asetustesti",
        "Name[fr]": "Test de configuration",
        "Name[gl]": "Proba de configuración",
        "Name[ia]": "Prova de configuration",
        "Name[id]": "Pengujian konfigurasi",
        "Name[it]": "Prova di configurazione",
        "Name[ka]": "კონფიგურაციის ტესტი",
        "Name[ko]": "설정 테스트",
        "Name[nl]": "Test van instellingen",
        "Name[nn]": "Oppsett-test",
        "Name[pl]": "Próba ustawień",
        "Name[pt]": "Teste de configuração",
        "Name[pt_BR]": "Teste de configuração",
        "Name[ru]": "Тест конфигурации",
        "Name[sk]": "Test nastavenia",
        "Name[sl]": "Preizkus konfiguracije",
        "Name[sv]": "Inställningstest",
        "Name[ta]": "அமைப்புகள் சோதனை",
        "Name[tr]": "Yapılandırma Sınaması",
        "Name[uk]": "Перевірка налаштувань",
        "Name[vi]": "Kiểm thử cấu hình",
        "Name[x-test]": "xxConfiguration testxx",
        "Name[zh_CN]": "配置测试",
        "Version": "",
        "Website": ""
    },
    "Keywords": "",
    "X-KDE-ParentApp": "",
    "X-Plasma-API": "declarativeappletscript",
    "X-Plasma-MainScript": "ui/main.qml"
}
