{
    "KPackageStructure": "Plasma/Applet",
    "KPlugin": {
        "Authors": [
            {
                "Email": "%{EMAIL}",
                "Name": "%{AUTHOR}",
                "Name[ar]": "%{المؤلف}",
                "Name[az]": "%{MÜƏLLİF}",
                "Name[be]": "%{AUTHOR}",
                "Name[bg]": "%{AUTHOR}",
                "Name[ca@valencia]": "%{AUTHOR}",
                "Name[ca]": "%{AUTHOR}",
                "Name[cs]": "%{AUTHOR}",
                "Name[de]": "%{AUTHOR}",
                "Name[en_GB]": "%{AUTHOR}",
                "Name[eo]": "%{AŬTORO}",
                "Name[es]": "%{AUTHOR}",
                "Name[eu]": "%{AUTHOR}",
                "Name[fi]": "%{AUTHOR}",
                "Name[fr]": "%{AUTHOR}",
                "Name[gl]": "%{AUTHOR}",
                "Name[ia]": "%{AUTHOR}",
                "Name[id]": "%{AUTHOR}",
                "Name[it]": "%{AUTHOR}",
                "Name[ka]": "%{AUTHOR}",
                "Name[ko]": "%{AUTHOR}",
                "Name[nl]": "%{AUTHOR}",
                "Name[nn]": "%{AUTHOR}",
                "Name[pl]": "%{AUTHOR}",
                "Name[pt]": "%{AUTHOR}",
                "Name[pt_BR]": "%{AUTHOR}",
                "Name[ru]": "%{AUTHOR}",
                "Name[sk]": "%{AUTHOR}",
                "Name[sl]": "%{AUTHOR}",
                "Name[sv]": "%{AUTHOR}",
                "Name[ta]": "%{AUTHOR}",
                "Name[tr]": "%{AUTHOR}",
                "Name[uk]": "%{AUTHOR}",
                "Name[vi]": "%{AUTHOR}",
                "Name[x-test]": "xx%{AUTHOR}xx",
                "Name[zh_CN]": "%{AUTHOR}"
            }
        ],
        "Category": "Utilities",
        "Description": "what your app does in a few words",
        "Description[az]": "Bu proqramın nə işə yaradığı haqqında bir neçə söz",
        "Description[be]": "кароткае апісанне працы вашай праграмы",
        "Description[bg]": "какво прави вашето приложение с няколко думи",
        "Description[ca@valencia]": "Què fa esta aplicació en poques paraules",
        "Description[ca]": "Què fa aquesta aplicació en poques paraules",
        "Description[en_GB]": "what your app does in a few words",
        "Description[eo]": "kion via aplikaĵo faras en kelkaj vortoj",
        "Description[es]": "Lo que hace su aplicación en pocas palabras",
        "Description[eu]": "zure aplikazioak egiten duena hitz gutxitan",
        "Description[fi]": "muutama sana siitä, mitä sovelmasi tekee",
        "Description[fr]": "ce que votre application fait en quelques mots",
        "Description[gl]": "O que fai a aplicación, en poucas palabras.",
        "Description[ia]": "cosa tu app face in pauc parolas",
        "Description[id]": "apa yang dilakukan aplikasi Anda dalam beberapa kata",
        "Description[it]": "Cosa fa la tua applicazione in poche parole",
        "Description[ka]": "რამდენიმე სიტყვით, რას აკეთებს თქვენი აპლიკაცია",
        "Description[ko]": "앱이 하는 일에 대한 간단한 설명",
        "Description[nl]": "wat uw app doet in een paar woorden",
        "Description[nn]": "nokre få ord om kva programmet gjer",
        "Description[pl]": "w kilku słowach opis co robi twój program",
        "Description[pt]": "o que faz a sua aplicação em poucas palavras",
        "Description[pt_BR]": "o que seu aplicativo faz em poucas palavras",
        "Description[ru]": "Несколько слов о том, что делает ваша программа",
        "Description[sk]": "čo vaša aplikácia robí v niekoľkých slovách",
        "Description[sl]": "v parih besedah kar počne vaša aplikacija",
        "Description[sv]": "vad programmet gör med några få ord",
        "Description[tr]": "uygulamanızı birkaç sözcükle anlatın",
        "Description[uk]": "призначення вашої програми у декількох словах",
        "Description[vi]": "dùng vài từ để mô tả ứng dụng của bạn làm việc gì",
        "Description[x-test]": "xxwhat your app does in a few wordsxx",
        "Description[zh_CN]": "用一个短句概括您的小程序的功能",
        "EnabledByDefault": true,
        "Icon": "applications-system",
        "Id": "org.kde.plasma.%{APPNAMELC}",
        "License": "LGPL-2.1+",
        "Name": "%{APPNAME}",
        "Name[ar]": "%{اسم_التطبيق}",
        "Name[ast]": "%{APPNAME}",
        "Name[az]": "%{TƏTBİQ_ADI}",
        "Name[be]": "%{APPNAME}",
        "Name[bg]": "%{APPNAME}",
        "Name[ca@valencia]": "%{APPNAME}",
        "Name[ca]": "%{APPNAME}",
        "Name[cs]": "%{APPNAME}",
        "Name[de]": "%{APPNAME}",
        "Name[en_GB]": "%{APPNAME}",
        "Name[eo]": "%{APPNAME}",
        "Name[es]": "%{APPNAME}",
        "Name[eu]": "%{APPNAME}",
        "Name[fi]": "%{APPNAME}",
        "Name[fr]": "%{APPNAME}",
        "Name[gl]": "%{APPNAME}",
        "Name[ia]": "%{APPNAME}",
        "Name[id]": "%{APPNAME}",
        "Name[it]": "%{APPNAME}",
        "Name[ka]": "%{APPNAME}",
        "Name[ko]": "%{APPNAME}",
        "Name[nl]": "%{APPNAME}",
        "Name[nn]": "%{APPNAME}",
        "Name[pl]": "%{APPNAME}",
        "Name[pt]": "%{APPNAME}",
        "Name[pt_BR]": "%{APPNAME}",
        "Name[ru]": "%{APPNAME}",
        "Name[sk]": "%{APPNAME}",
        "Name[sl]": "%{APPNAME}",
        "Name[sv]": "%{APPNAME}",
        "Name[ta]": "%{APPNAME}",
        "Name[tr]": "%{APPNAME}",
        "Name[uk]": "%{APPNAME}",
        "Name[vi]": "%{APPNAME}",
        "Name[x-test]": "xx%{APPNAME}xx",
        "Name[zh_CN]": "%{APPNAME}",
        "Version": "1.0",
        "Website": "https://plasma.kde.org/"
    },
    "X-Plasma-API": "declarativeappletscript",
    "X-Plasma-MainScript": "ui/main.qml"
}
